<?xml version="1.0" encoding="utf-8"?>
<!-- Generator: Adobe Illustrator 16.0.4, SVG Export Plug-In . SVG Version: 6.00 Build 0)  -->
<!DOCTYPE svg PUBLIC "-//W3C//DTD SVG 1.1//EN" "http://www.w3.org/Graphics/SVG/1.1/DTD/svg11.dtd">
<svg version="1.1" id="Layer_1" xmlns="http://www.w3.org/2000/svg" xmlns:xlink="http://www.w3.org/1999/xlink" x="0px" y="0px"
	 width="126px" height="31px" viewBox="0 0 126 31" enable-background="new 0 0 126 31" xml:space="preserve">
<g>
	<g>
		<polygon fill="#154374" points="111.922,5.621 114.638,0.924 117.346,5.621 		"/>
		<path fill="#154374" d="M119.58,8.917h-9.896c-3.045,0-5.512,2.464-5.512,5.509v9.904c0,3.039,2.467,5.502,5.512,5.502h2.242
			v-4.644h5.421v4.644h2.23c3.043,0,5.511-2.463,5.511-5.507v-9.899C125.09,11.381,122.623,8.917,119.58,8.917z M111.922,18.973
			l2.716-4.697l2.708,4.697H111.922z"/>
	</g>
	<g>
		<path fill="#677443" d="M19.058,29.821h-4.368l-1.34-4.782H6.205l-1.34,4.782H0.911L7.13,8.901h5.772L19.058,29.821z
			 M9.904,12.281H9.68l-2.71,9.694h5.55L9.904,12.281z"/>
		<path fill="#677443" d="M21.803,8.901h10.971v3.157h-7.145v5.421h6.568v3.157h-6.568v6.025h7.238v3.157H21.803V8.901L21.803,8.901
			z"/>
		<path fill="#52674F" d="M40.844,29.821h-3.826V8.901h6.122c5.229,0,7.812,2.393,7.812,5.836c0,2.838-1.467,4.976-3.795,6.027
			l5.55,9.057H48.24l-4.783-8.004h-2.613V29.821L40.844,29.821z M40.844,18.819h2.326c2.297,0,3.797-1.339,3.797-3.635
			c0-2.138-1.213-3.222-4.113-3.222h-2.01V18.819L40.844,18.819z"/>
		<path fill="#3E5A5A" d="M58.895,29.821h-3.826V8.901h3.826V29.821z"/>
		<path fill="#2A4F65" d="M63.711,22.583V8.901h3.827v13.234c0,3.125,1.437,4.528,4.179,4.528c2.646,0,4.113-1.562,4.113-4.466V8.9
			h3.635v13.395c0,4.688-3.028,7.78-7.973,7.78C66.136,30.076,63.711,27.463,63.711,22.583z"/>
		<path fill="#164374" d="M82.594,26.347c2.041,0.383,3.539,0.511,5.324,0.511c2.902,0,4.497-1.275,4.497-2.773
			c0-1.341-0.638-2.138-3.157-2.998l-2.614-0.894c-2.456-0.829-3.795-2.583-3.795-5.262c0-3.637,2.935-6.25,8.067-6.25
			c1.499,0,2.998,0.127,4.434,0.415l-0.255,3.188c-1.531-0.287-2.773-0.415-4.369-0.415c-2.87,0-4.146,1.116-4.146,2.615
			c0,1.308,0.732,2.073,2.646,2.679l2.583,0.829c3.062,0.989,4.4,2.647,4.4,5.358c0,3.954-3.188,6.695-8.419,6.695
			c-1.914,0-3.381-0.062-5.197-0.384L82.594,26.347L82.594,26.347z"/>
	</g>
</g>
</svg>
