Error in subroutine: dontknow

Error: Some OPS error                                                                                                                                                                                                                                                                                                                                                                                                                                                                                              

Relevant parameters:
  Io-status = 31
  File type = text
